info face="Verdana" size=28 bold=0 italic=0 charset="ANSI" stretchH=100 smooth=1 aa=1 padding=0,0,0,0 spacing=1,1
common lineHeight=28 base=23 scaleW=256 scaleH=256 pages=1
char id=32   x=0     y=0     width=1     height=0     xoffset=0     yoffset=28    xadvance=8     page=0 
char id=33   x=251   y=46    width=2     height=17    xoffset=3     yoffset=6     xadvance=9     page=0 
char id=34   x=227   y=169   width=7     height=6     xoffset=2     yoffset=5     xadvance=11    page=0 
char id=35   x=134   y=106   width=14    height=17    xoffset=2     yoffset=6     xadvance=19    page=0 
char id=36   x=128   y=24    width=11    height=22    xoffset=2     yoffset=5     xadvance=15    page=0 
char id=37   x=124   y=88    width=21    height=17    xoffset=2     yoffset=6     xadvance=25    page=0 
char id=38   x=18    y=110   width=16    height=17    xoffset=1     yoffset=6     xadvance=17    page=0 
char id=39   x=253   y=139   width=2     height=6     xoffset=2     yoffset=5     xadvance=6     page=0 
char id=40   x=22    y=24    width=7     height=23    xoffset=2     yoffset=5     xadvance=10    page=0 
char id=41   x=30    y=24    width=7     height=23    xoffset=1     yoffset=5     xadvance=10    page=0 
char id=42   x=49    y=178   width=11    height=10    xoffset=2     yoffset=5     xadvance=15    page=0 
char id=43   x=216   y=140   width=14    height=14    xoffset=2     yoffset=9     xadvance=19    page=0 
char id=44   x=172   y=171   width=5     height=7     xoffset=2     yoffset=20    xadvance=8     page=0 
char id=45   x=93    y=185   width=7     height=2     xoffset=2     yoffset=15    xadvance=10    page=0 
char id=46   x=38    y=190   width=3     height=3     xoffset=3     yoffset=20    xadvance=8     page=0 
char id=47   x=66    y=47    width=10    height=21    xoffset=0     yoffset=5     xadvance=10    page=0 
char id=48   x=176   y=122   width=11    height=17    xoffset=2     yoffset=6     xadvance=15    page=0 
char id=49   x=127   y=143   width=8     height=17    xoffset=4     yoffset=6     xadvance=15    page=0 
char id=50   x=188   y=122   width=11    height=17    xoffset=2     yoffset=6     xadvance=15    page=0 
char id=51   x=200   y=122   width=11    height=17    xoffset=2     yoffset=6     xadvance=15    page=0 
char id=52   x=85    y=125   width=12    height=17    xoffset=1     yoffset=6     xadvance=15    page=0 
char id=53   x=212   y=122   width=11    height=17    xoffset=2     yoffset=6     xadvance=15    page=0 
char id=54   x=224   y=122   width=11    height=17    xoffset=2     yoffset=6     xadvance=15    page=0 
char id=55   x=236   y=122   width=11    height=17    xoffset=2     yoffset=6     xadvance=15    page=0 
char id=56   x=0     y=146   width=11    height=17    xoffset=2     yoffset=6     xadvance=15    page=0 
char id=57   x=12    y=146   width=11    height=17    xoffset=2     yoffset=6     xadvance=15    page=0 
char id=58   x=230   y=155   width=3     height=13    xoffset=4     yoffset=10    xadvance=10    page=0 
char id=59   x=250   y=66    width=5     height=17    xoffset=3     yoffset=10    xadvance=10    page=0 
char id=60   x=58    y=164   width=13    height=13    xoffset=3     yoffset=9     xadvance=19    page=0 
char id=61   x=158   y=172   width=13    height=7     xoffset=3     yoffset=12    xadvance=19    page=0 
char id=62   x=72    y=161   width=13    height=13    xoffset=3     yoffset=9     xadvance=19    page=0 
char id=63   x=107   y=143   width=9     height=17    xoffset=2     yoffset=6     xadvance=13    page=0 
char id=64   x=107   y=47    width=19    height=20    xoffset=2     yoffset=6     xadvance=23    page=0 
char id=65   x=35    y=110   width=16    height=17    xoffset=0     yoffset=6     xadvance=16    page=0 
char id=66   x=15    y=128   width=13    height=17    xoffset=2     yoffset=6     xadvance=16    page=0 
char id=67   x=149   y=104   width=14    height=17    xoffset=1     yoffset=6     xadvance=16    page=0 
char id=68   x=86    y=107   width=15    height=17    xoffset=2     yoffset=6     xadvance=18    page=0 
char id=69   x=98    y=125   width=12    height=17    xoffset=2     yoffset=6     xadvance=15    page=0 
char id=70   x=24    y=146   width=11    height=17    xoffset=2     yoffset=6     xadvance=13    page=0 
char id=71   x=102   y=107   width=15    height=17    xoffset=1     yoffset=6     xadvance=18    page=0 
char id=72   x=29    y=128   width=13    height=17    xoffset=2     yoffset=6     xadvance=17    page=0 
char id=73   x=145   y=142   width=6     height=17    xoffset=2     yoffset=6     xadvance=10    page=0 
char id=74   x=248   y=121   width=7     height=17    xoffset=1     yoffset=6     xadvance=10    page=0 
char id=75   x=164   y=104   width=14    height=17    xoffset=2     yoffset=6     xadvance=16    page=0 
char id=76   x=36    y=146   width=11    height=17    xoffset=2     yoffset=6     xadvance=13    page=0 
char id=77   x=118   y=107   width=15    height=17    xoffset=2     yoffset=6     xadvance=19    page=0 
char id=78   x=43    y=128   width=13    height=17    xoffset=2     yoffset=6     xadvance=17    page=0 
char id=79   x=52    y=109   width=16    height=17    xoffset=1     yoffset=6     xadvance=18    page=0 
char id=80   x=48    y=146   width=11    height=17    xoffset=2     yoffset=6     xadvance=14    page=0 
char id=81   x=202   y=24    width=16    height=21    xoffset=1     yoffset=6     xadvance=18    page=0 
char id=82   x=179   y=104   width=14    height=17    xoffset=2     yoffset=6     xadvance=16    page=0 
char id=83   x=57    y=127   width=13    height=17    xoffset=2     yoffset=6     xadvance=16    page=0 
char id=84   x=194   y=104   width=14    height=17    xoffset=0     yoffset=6     xadvance=14    page=0 
char id=85   x=71    y=125   width=13    height=17    xoffset=2     yoffset=6     xadvance=17    page=0 
char id=86   x=69    y=107   width=16    height=17    xoffset=0     yoffset=6     xadvance=16    page=0 
char id=87   x=146   y=86    width=21    height=17    xoffset=1     yoffset=6     xadvance=23    page=0 
char id=88   x=209   y=104   width=14    height=17    xoffset=1     yoffset=6     xadvance=16    page=0 
char id=89   x=224   y=104   width=14    height=17    xoffset=0     yoffset=6     xadvance=14    page=0 
char id=90   x=239   y=103   width=14    height=17    xoffset=1     yoffset=6     xadvance=16    page=0 
char id=91   x=182   y=24    width=6     height=22    xoffset=3     yoffset=5     xadvance=10    page=0 
char id=92   x=77    y=47    width=10    height=21    xoffset=1     yoffset=5     xadvance=10    page=0 
char id=93   x=189   y=24    width=6     height=22    xoffset=2     yoffset=5     xadvance=10    page=0 
char id=94   x=88    y=175   width=15    height=9     xoffset=2     yoffset=6     xadvance=19    page=0 
char id=95   x=117   y=184   width=15    height=1     xoffset=0     yoffset=25    xadvance=15    page=0 
char id=96   x=16    y=190   width=5     height=4     xoffset=4     yoffset=4     xadvance=15    page=0 
char id=97   x=152   y=158   width=11    height=13    xoffset=1     yoffset=10    xadvance=14    page=0 
char id=98   x=178   y=67    width=11    height=18    xoffset=2     yoffset=5     xadvance=14    page=0 
char id=99   x=188   y=156   width=10    height=13    xoffset=1     yoffset=10    xadvance=12    page=0 
char id=100  x=190   y=67    width=11    height=18    xoffset=1     yoffset=5     xadvance=14    page=0 
char id=101  x=100   y=161   width=12    height=13    xoffset=1     yoffset=10    xadvance=14    page=0 
char id=102  x=59    y=90    width=8     height=18    xoffset=1     yoffset=5     xadvance=8     page=0 
char id=103  x=202   y=67    width=11    height=18    xoffset=1     yoffset=10    xadvance=14    page=0 
char id=104  x=214   y=66    width=11    height=18    xoffset=2     yoffset=5     xadvance=15    page=0 
char id=105  x=251   y=84    width=2     height=17    xoffset=2     yoffset=6     xadvance=6     page=0 
char id=106  x=174   y=24    width=7     height=22    xoffset=-1    yoffset=6     xadvance=8     page=0 
char id=107  x=139   y=67    width=12    height=18    xoffset=2     yoffset=5     xadvance=14    page=0 
char id=108  x=253   y=24    width=2     height=18    xoffset=2     yoffset=5     xadvance=6     page=0 
char id=109  x=21    y=164   width=18    height=13    xoffset=2     yoffset=10    xadvance=22    page=0 
char id=110  x=164   y=157   width=11    height=13    xoffset=2     yoffset=10    xadvance=15    page=0 
char id=111  x=113   y=161   width=12    height=13    xoffset=1     yoffset=10    xadvance=14    page=0 
char id=112  x=226   y=66    width=11    height=18    xoffset=2     yoffset=10    xadvance=14    page=0 
char id=113  x=238   y=66    width=11    height=18    xoffset=1     yoffset=10    xadvance=14    page=0 
char id=114  x=221   y=155   width=8     height=13    xoffset=2     yoffset=10    xadvance=10    page=0 
char id=115  x=199   y=156   width=10    height=13    xoffset=1     yoffset=10    xadvance=12    page=0 
char id=116  x=136   y=143   width=8     height=17    xoffset=1     yoffset=6     xadvance=9     page=0 
char id=117  x=176   y=156   width=11    height=13    xoffset=2     yoffset=10    xadvance=15    page=0 
char id=118  x=126   y=161   width=12    height=13    xoffset=1     yoffset=10    xadvance=14    page=0 
char id=119  x=40    y=164   width=17    height=13    xoffset=1     yoffset=10    xadvance=19    page=0 
char id=120  x=139   y=161   width=12    height=13    xoffset=1     yoffset=10    xadvance=14    page=0 
char id=121  x=152   y=67    width=12    height=18    xoffset=1     yoffset=10    xadvance=14    page=0 
char id=122  x=210   y=155   width=10    height=13    xoffset=1     yoffset=10    xadvance=12    page=0 
char id=123  x=152   y=24    width=10    height=22    xoffset=2     yoffset=5     xadvance=15    page=0 
char id=124  x=196   y=24    width=2     height=22    xoffset=4     yoffset=5     xadvance=10    page=0 
char id=125  x=163   y=24    width=10    height=22    xoffset=3     yoffset=5     xadvance=15    page=0 
char id=126  x=178   y=170   width=15    height=6     xoffset=2     yoffset=13    xadvance=19    page=0 
char id=128  x=0     y=128   width=14    height=17    xoffset=0     yoffset=6     xadvance=15    page=0 
char id=130  x=235   y=166   width=5     height=6     xoffset=0     yoffset=20    xadvance=6     page=0 
char id=131  x=184   y=47    width=14    height=19    xoffset=0     yoffset=6     xadvance=15    page=0 
char id=132  x=194   y=170   width=10    height=6     xoffset=0     yoffset=20    xadvance=11    page=0 
char id=133  x=66    y=189   width=14    height=2     xoffset=2     yoffset=21    xadvance=19    page=0 
char id=134  x=162   y=140   width=9     height=16    xoffset=3     yoffset=5     xadvance=15    page=0 
char id=135  x=117   y=143   width=9     height=17    xoffset=3     yoffset=5     xadvance=15    page=0 
char id=136  x=7     y=190   width=8     height=4     xoffset=3     yoffset=4     xadvance=15    page=0 
char id=137  x=68    y=89    width=31    height=17    xoffset=2     yoffset=6     xadvance=35    page=0 
char id=138  x=162   y=0     width=13    height=23    xoffset=2     yoffset=0     xadvance=16    page=0 
char id=139  x=35    y=178   width=6     height=11    xoffset=2     yoffset=10    xadvance=10    page=0 
char id=140  x=100   y=89    width=23    height=17    xoffset=1     yoffset=6     xadvance=25    page=0 
char id=142  x=132   y=0     width=14    height=23    xoffset=1     yoffset=0     xadvance=16    page=0 
char id=145  x=241   y=166   width=5     height=6     xoffset=0     yoffset=5     xadvance=6     page=0 
char id=146  x=247   y=166   width=5     height=6     xoffset=2     yoffset=5     xadvance=6     page=0 
char id=147  x=205   y=170   width=10    height=6     xoffset=0     yoffset=5     xadvance=11    page=0 
char id=148  x=216   y=169   width=10    height=6     xoffset=2     yoffset=5     xadvance=11    page=0 
char id=149  x=149   y=175   width=8     height=8     xoffset=2     yoffset=11    xadvance=13    page=0 
char id=150  x=81    y=186   width=11    height=2     xoffset=2     yoffset=15    xadvance=15    page=0 
char id=151  x=46    y=190   width=19    height=2     xoffset=2     yoffset=15    xadvance=23    page=0 
char id=152  x=28    y=190   width=9     height=3     xoffset=3     yoffset=5     xadvance=15    page=0 
char id=153  x=114   y=175   width=19    height=8     xoffset=1     yoffset=6     xadvance=22    page=0 
char id=154  x=98    y=69    width=10    height=19    xoffset=1     yoffset=4     xadvance=12    page=0 
char id=155  x=42    y=178   width=6     height=11    xoffset=2     yoffset=10    xadvance=10    page=0 
char id=156  x=231   y=140   width=21    height=13    xoffset=1     yoffset=10    xadvance=23    page=0 
char id=158  x=109   y=68    width=10    height=19    xoffset=1     yoffset=4     xadvance=12    page=0 
char id=159  x=0     y=49    width=14    height=21    xoffset=0     yoffset=2     xadvance=14    page=0 
char id=160  x=0     y=0     width=1     height=0     xoffset=0     yoffset=28    xadvance=8     page=0 
char id=161  x=159   y=140   width=2     height=17    xoffset=3     yoffset=6     xadvance=9     page=0 
char id=162  x=88    y=47    width=10    height=21    xoffset=2     yoffset=6     xadvance=15    page=0 
char id=163  x=111   y=125   width=12    height=17    xoffset=2     yoffset=6     xadvance=15    page=0 
char id=164  x=234   y=154   width=11    height=11    xoffset=2     yoffset=10    xadvance=15    page=0 
char id=165  x=124   y=125   width=12    height=17    xoffset=1     yoffset=6     xadvance=15    page=0 
char id=166  x=199   y=24    width=2     height=22    xoffset=4     yoffset=5     xadvance=10    page=0 
char id=167  x=42    y=48    width=11    height=21    xoffset=2     yoffset=6     xadvance=15    page=0 
char id=168  x=101   y=185   width=7     height=2     xoffset=4     yoffset=6     xadvance=15    page=0 
char id=169  x=127   y=47    width=19    height=19    xoffset=2     yoffset=6     xadvance=23    page=0 
char id=170  x=246   y=154   width=9     height=11    xoffset=2     yoffset=6     xadvance=13    page=0 
char id=171  x=0     y=178   width=11    height=11    xoffset=2     yoffset=10    xadvance=15    page=0 
char id=172  x=134   y=175   width=14    height=8     xoffset=2     yoffset=14    xadvance=19    page=0 
char id=173  x=109   y=185   width=7     height=2     xoffset=2     yoffset=15    xadvance=10    page=0 
char id=174  x=147   y=47    width=19    height=19    xoffset=2     yoffset=6     xadvance=23    page=0 
char id=175  x=133   y=184   width=15    height=1     xoffset=0     yoffset=3     xadvance=15    page=0 
char id=176  x=104   y=175   width=9     height=9     xoffset=2     yoffset=6     xadvance=12    page=0 
char id=177  x=172   y=140   width=14    height=15    xoffset=2     yoffset=7     xadvance=19    page=0 
char id=178  x=61    y=178   width=9     height=10    xoffset=2     yoffset=6     xadvance=12    page=0 
char id=179  x=71    y=178   width=8     height=10    xoffset=2     yoffset=6     xadvance=12    page=0 
char id=180  x=22    y=190   width=5     height=4     xoffset=6     yoffset=4     xadvance=15    page=0 
char id=181  x=0     y=91    width=11    height=18    xoffset=2     yoffset=10    xadvance=15    page=0 
char id=182  x=54    y=47    width=11    height=21    xoffset=2     yoffset=6     xadvance=15    page=0 
char id=183  x=42    y=190   width=3     height=3     xoffset=3     yoffset=14    xadvance=8     page=0 
char id=184  x=0     y=190   width=6     height=5     xoffset=4     yoffset=23    xadvance=15    page=0 
char id=185  x=80    y=175   width=7     height=10    xoffset=3     yoffset=6     xadvance=12    page=0 
char id=186  x=24    y=178   width=10    height=11    xoffset=1     yoffset=6     xadvance=13    page=0 
char id=187  x=12    y=178   width=11    height=11    xoffset=2     yoffset=10    xadvance=15    page=0 
char id=188  x=232   y=85    width=18    height=17    xoffset=3     yoffset=6     xadvance=23    page=0 
char id=189  x=190   y=86    width=20    height=17    xoffset=3     yoffset=6     xadvance=23    page=0 
char id=190  x=211   y=86    width=20    height=17    xoffset=2     yoffset=6     xadvance=23    page=0 
char id=191  x=96    y=143   width=10    height=17    xoffset=1     yoffset=6     xadvance=13    page=0 
char id=192  x=13    y=0     width=16    height=23    xoffset=0     yoffset=0     xadvance=16    page=0 
char id=193  x=30    y=0     width=16    height=23    xoffset=0     yoffset=0     xadvance=16    page=0 
char id=194  x=47    y=0     width=16    height=23    xoffset=0     yoffset=0     xadvance=16    page=0 
char id=195  x=52    y=24    width=16    height=22    xoffset=0     yoffset=1     xadvance=16    page=0 
char id=196  x=219   y=24    width=16    height=21    xoffset=0     yoffset=2     xadvance=16    page=0 
char id=197  x=64    y=0     width=16    height=23    xoffset=0     yoffset=0     xadvance=16    page=0 
char id=198  x=168   y=86    width=21    height=17    xoffset=0     yoffset=6     xadvance=22    page=0 
char id=199  x=86    y=24    width=14    height=22    xoffset=1     yoffset=6     xadvance=16    page=0 
char id=200  x=218   y=0     width=12    height=23    xoffset=2     yoffset=0     xadvance=15    page=0 
char id=201  x=231   y=0     width=12    height=23    xoffset=2     yoffset=0     xadvance=15    page=0 
char id=202  x=0     y=25    width=12    height=23    xoffset=2     yoffset=0     xadvance=15    page=0 
char id=203  x=29    y=48    width=12    height=21    xoffset=2     yoffset=2     xadvance=15    page=0 
char id=204  x=38    y=24    width=6     height=23    xoffset=2     yoffset=0     xadvance=10    page=0 
char id=205  x=45    y=24    width=6     height=23    xoffset=2     yoffset=0     xadvance=10    page=0 
char id=206  x=13    y=24    width=8     height=23    xoffset=1     yoffset=0     xadvance=10    page=0 
char id=207  x=99    y=47    width=7     height=21    xoffset=2     yoffset=2     xadvance=10    page=0 
char id=208  x=0     y=110   width=17    height=17    xoffset=0     yoffset=6     xadvance=18    page=0 
char id=209  x=101   y=24    width=13    height=22    xoffset=2     yoffset=1     xadvance=17    page=0 
char id=210  x=81    y=0     width=16    height=23    xoffset=1     yoffset=0     xadvance=18    page=0 
char id=211  x=98    y=0     width=16    height=23    xoffset=1     yoffset=0     xadvance=18    page=0 
char id=212  x=115   y=0     width=16    height=23    xoffset=1     yoffset=0     xadvance=18    page=0 
char id=213  x=69    y=24    width=16    height=22    xoffset=1     yoffset=1     xadvance=18    page=0 
char id=214  x=236   y=24    width=16    height=21    xoffset=1     yoffset=2     xadvance=18    page=0 
char id=215  x=86    y=161   width=13    height=13    xoffset=3     yoffset=9     xadvance=19    page=0 
char id=216  x=167   y=47    width=16    height=19    xoffset=1     yoffset=5     xadvance=18    page=0 
char id=217  x=176   y=0     width=13    height=23    xoffset=2     yoffset=0     xadvance=17    page=0 
char id=218  x=190   y=0     width=13    height=23    xoffset=2     yoffset=0     xadvance=17    page=0 
char id=219  x=204   y=0     width=13    height=23    xoffset=2     yoffset=0     xadvance=17    page=0 
char id=220  x=15    y=48    width=13    height=21    xoffset=2     yoffset=2     xadvance=17    page=0 
char id=221  x=147   y=0     width=14    height=23    xoffset=0     yoffset=0     xadvance=14    page=0 
char id=222  x=60    y=145   width=11    height=17    xoffset=2     yoffset=6     xadvance=14    page=0 
char id=223  x=12    y=91    width=11    height=18    xoffset=2     yoffset=5     xadvance=14    page=0 
char id=224  x=26    y=70    width=11    height=19    xoffset=1     yoffset=4     xadvance=14    page=0 
char id=225  x=38    y=70    width=11    height=19    xoffset=1     yoffset=4     xadvance=14    page=0 
char id=226  x=50    y=70    width=11    height=19    xoffset=1     yoffset=4     xadvance=14    page=0 
char id=227  x=24    y=91    width=11    height=18    xoffset=1     yoffset=5     xadvance=14    page=0 
char id=228  x=72    y=143   width=11    height=17    xoffset=1     yoffset=6     xadvance=14    page=0 
char id=229  x=140   y=24    width=11    height=22    xoffset=1     yoffset=1     xadvance=14    page=0 
char id=230  x=0     y=164   width=20    height=13    xoffset=1     yoffset=10    xadvance=22    page=0 
char id=231  x=48    y=90    width=10    height=18    xoffset=1     yoffset=10    xadvance=12    page=0 
char id=232  x=199   y=47    width=12    height=19    xoffset=1     yoffset=4     xadvance=14    page=0 
char id=233  x=212   y=46    width=12    height=19    xoffset=1     yoffset=4     xadvance=14    page=0 
char id=234  x=225   y=46    width=12    height=19    xoffset=1     yoffset=4     xadvance=14    page=0 
char id=235  x=137   y=124   width=12    height=17    xoffset=1     yoffset=6     xadvance=14    page=0 
char id=236  x=127   y=67    width=5     height=19    xoffset=0     yoffset=4     xadvance=6     page=0 
char id=237  x=133   y=67    width=5     height=19    xoffset=1     yoffset=4     xadvance=6     page=0 
char id=238  x=120   y=68    width=6     height=19    xoffset=0     yoffset=4     xadvance=6     page=0 
char id=239  x=152   y=140   width=6     height=17    xoffset=0     yoffset=6     xadvance=6     page=0 
char id=240  x=150   y=122   width=12    height=17    xoffset=1     yoffset=6     xadvance=14    page=0 
char id=241  x=36    y=90    width=11    height=18    xoffset=2     yoffset=5     xadvance=15    page=0 
char id=242  x=238   y=46    width=12    height=19    xoffset=1     yoffset=4     xadvance=14    page=0 
char id=243  x=0     y=71    width=12    height=19    xoffset=1     yoffset=4     xadvance=14    page=0 
char id=244  x=13    y=71    width=12    height=19    xoffset=1     yoffset=4     xadvance=14    page=0 
char id=245  x=165   y=67    width=12    height=18    xoffset=1     yoffset=5     xadvance=14    page=0 
char id=246  x=163   y=122   width=12    height=17    xoffset=1     yoffset=6     xadvance=14    page=0 
char id=247  x=200   y=140   width=15    height=14    xoffset=2     yoffset=9     xadvance=19    page=0 
char id=248  x=187   y=140   width=12    height=15    xoffset=1     yoffset=9     xadvance=14    page=0 
char id=249  x=62    y=69    width=11    height=19    xoffset=2     yoffset=4     xadvance=15    page=0 
char id=250  x=74    y=69    width=11    height=19    xoffset=2     yoffset=4     xadvance=15    page=0 
char id=251  x=86    y=69    width=11    height=19    xoffset=2     yoffset=4     xadvance=15    page=0 
char id=252  x=84    y=143   width=11    height=17    xoffset=2     yoffset=6     xadvance=15    page=0 
char id=253  x=0     y=0     width=12    height=24    xoffset=1     yoffset=4     xadvance=14    page=0 
char id=254  x=244   y=0     width=11    height=23    xoffset=2     yoffset=5     xadvance=14    page=0 
char id=255  x=115   y=24    width=12    height=22    xoffset=1     yoffset=6     xadvance=14    page=0 
kerning first=33  second=148 amount=-1  
kerning first=33  second=146 amount=-1  
kerning first=39  second=65  amount=-1  
kerning first=39  second=198 amount=-1  
kerning first=44  second=148 amount=-2  
kerning first=44  second=146 amount=-2  
kerning first=45  second=65  amount=-1  
kerning first=45  second=74  amount=-1  
kerning first=45  second=84  amount=-2  
kerning first=45  second=86  amount=-1  
kerning first=45  second=87  amount=-1  
kerning first=45  second=88  amount=-1  
kerning first=45  second=89  amount=-2  
kerning first=45  second=120 amount=-1  
kerning first=45  second=198 amount=-1  
kerning first=46  second=44  amount=-1  
kerning first=46  second=45  amount=-2  
kerning first=46  second=150 amount=-1  
kerning first=46  second=151 amount=-1  
kerning first=46  second=148 amount=-2  
kerning first=46  second=146 amount=-2  
kerning first=58  second=151 amount=-2  
kerning first=65  second=45  amount=-1  
kerning first=65  second=84  amount=-1  
kerning first=65  second=86  amount=-1  
kerning first=65  second=87  amount=-1  
kerning first=65  second=89  amount=-1  
kerning first=65  second=118 amount=-1  
kerning first=65  second=121 amount=-1  
kerning first=65  second=150 amount=-1  
kerning first=65  second=151 amount=-1  
kerning first=65  second=147 amount=-1  
kerning first=65  second=148 amount=-1  
kerning first=65  second=145 amount=-1  
kerning first=65  second=146 amount=-1  
kerning first=66  second=84  amount=-1  
kerning first=67  second=45  amount=-1  
kerning first=67  second=150 amount=-1  
kerning first=67  second=151 amount=-1  
kerning first=68  second=44  amount=-1  
kerning first=68  second=46  amount=-1  
kerning first=68  second=84  amount=-1  
kerning first=68  second=133 amount=-1  
kerning first=70  second=44  amount=-3  
kerning first=70  second=46  amount=-3  
kerning first=70  second=58  amount=-1  
kerning first=70  second=59  amount=-1  
kerning first=70  second=63  amount=1   
kerning first=70  second=65  amount=-1  
kerning first=70  second=97  amount=-1  
kerning first=70  second=101 amount=-1  
kerning first=70  second=111 amount=-1  
kerning first=70  second=198 amount=-1  
kerning first=70  second=230 amount=-1  
kerning first=70  second=248 amount=-1  
kerning first=70  second=133 amount=-3  
kerning first=70  second=156 amount=-1  
kerning first=75  second=45  amount=-1  
kerning first=75  second=97  amount=-1  
kerning first=75  second=101 amount=-1  
kerning first=75  second=111 amount=-1  
kerning first=75  second=117 amount=-1  
kerning first=75  second=118 amount=-1  
kerning first=75  second=119 amount=-1  
kerning first=75  second=121 amount=-1  
kerning first=75  second=230 amount=-1  
kerning first=75  second=248 amount=-1  
kerning first=75  second=156 amount=-1  
kerning first=75  second=150 amount=-1  
kerning first=75  second=151 amount=-1  
kerning first=76  second=39  amount=-1  
kerning first=76  second=45  amount=-2  
kerning first=76  second=74  amount=1   
kerning first=76  second=84  amount=-2  
kerning first=76  second=86  amount=-1  
kerning first=76  second=87  amount=-1  
kerning first=76  second=89  amount=-2  
kerning first=76  second=118 amount=-1  
kerning first=76  second=121 amount=-1  
kerning first=76  second=150 amount=-2  
kerning first=76  second=151 amount=-2  
kerning first=76  second=148 amount=-2  
kerning first=76  second=146 amount=-2  
kerning first=79  second=84  amount=-1  
kerning first=80  second=44  amount=-3  
kerning first=80  second=46  amount=-3  
kerning first=80  second=65  amount=-1  
kerning first=80  second=97  amount=-1  
kerning first=80  second=101 amount=-1  
kerning first=80  second=111 amount=-1  
kerning first=80  second=198 amount=-1  
kerning first=80  second=230 amount=-1  
kerning first=80  second=248 amount=-1  
kerning first=80  second=133 amount=-3  
kerning first=80  second=156 amount=-1  
kerning first=82  second=45  amount=-1  
kerning first=82  second=84  amount=-1  
kerning first=82  second=101 amount=-1  
kerning first=82  second=111 amount=-1  
kerning first=82  second=121 amount=-1  
kerning first=82  second=230 amount=-1  
kerning first=82  second=248 amount=-1  
kerning first=82  second=156 amount=-1  
kerning first=82  second=150 amount=-1  
kerning first=82  second=151 amount=-1  
kerning first=82  second=148 amount=-1  
kerning first=82  second=146 amount=-1  
kerning first=84  second=44  amount=-3  
kerning first=84  second=45  amount=-2  
kerning first=84  second=46  amount=-3  
kerning first=84  second=58  amount=-2  
kerning first=84  second=59  amount=-2  
kerning first=84  second=63  amount=1   
kerning first=84  second=65  amount=-1  
kerning first=84  second=79  amount=-1  
kerning first=84  second=84  amount=-1  
kerning first=84  second=97  amount=-3  
kerning first=84  second=99  amount=-2  
kerning first=84  second=101 amount=-2  
kerning first=84  second=103 amount=-2  
kerning first=84  second=111 amount=-2  
kerning first=84  second=114 amount=-2  
kerning first=84  second=115 amount=-2  
kerning first=84  second=117 amount=-2  
kerning first=84  second=118 amount=-2  
kerning first=84  second=119 amount=-2  
kerning first=84  second=121 amount=-2  
kerning first=84  second=122 amount=-2  
kerning first=84  second=198 amount=-1  
kerning first=84  second=216 amount=-1  
kerning first=84  second=230 amount=-3  
kerning first=84  second=248 amount=-2  
kerning first=84  second=133 amount=-3  
kerning first=84  second=140 amount=-1  
kerning first=84  second=156 amount=-2  
kerning first=84  second=150 amount=-2  
kerning first=84  second=151 amount=-2  
kerning first=86  second=44  amount=-3  
kerning first=86  second=45  amount=-1  
kerning first=86  second=46  amount=-3  
kerning first=86  second=58  amount=-1  
kerning first=86  second=59  amount=-1  
kerning first=86  second=65  amount=-1  
kerning first=86  second=97  amount=-1  
kerning first=86  second=101 amount=-1  
kerning first=86  second=111 amount=-1  
kerning first=86  second=117 amount=-1  
kerning first=86  second=121 amount=-1  
kerning first=86  second=198 amount=-1  
kerning first=86  second=230 amount=-1  
kerning first=86  second=248 amount=-1  
kerning first=86  second=133 amount=-3  
kerning first=86  second=156 amount=-1  
kerning first=86  second=150 amount=-1  
kerning first=86  second=151 amount=-1  
kerning first=87  second=44  amount=-3  
kerning first=87  second=45  amount=-1  
kerning first=87  second=46  amount=-2  
kerning first=87  second=58  amount=-1  
kerning first=87  second=59  amount=-1  
kerning first=87  second=65  amount=-1  
kerning first=87  second=97  amount=-1  
kerning first=87  second=101 amount=-1  
kerning first=87  second=111 amount=-1  
kerning first=87  second=114 amount=-1  
kerning first=87  second=117 amount=-1  
kerning first=87  second=121 amount=-1  
kerning first=87  second=198 amount=-1  
kerning first=87  second=230 amount=-1  
kerning first=87  second=248 amount=-1  
kerning first=87  second=133 amount=-2  
kerning first=87  second=156 amount=-1  
kerning first=87  second=150 amount=-1  
kerning first=87  second=151 amount=-1  
kerning first=88  second=45  amount=-1  
kerning first=88  second=97  amount=-1  
kerning first=88  second=101 amount=-1  
kerning first=88  second=111 amount=-1  
kerning first=88  second=121 amount=-1  
kerning first=88  second=230 amount=-1  
kerning first=88  second=248 amount=-1  
kerning first=88  second=156 amount=-1  
kerning first=88  second=150 amount=-1  
kerning first=88  second=151 amount=-1  
kerning first=89  second=44  amount=-3  
kerning first=89  second=45  amount=-2  
kerning first=89  second=46  amount=-3  
kerning first=89  second=58  amount=-2  
kerning first=89  second=59  amount=-2  
kerning first=89  second=65  amount=-1  
kerning first=89  second=97  amount=-2  
kerning first=89  second=100 amount=-1  
kerning first=89  second=101 amount=-1  
kerning first=89  second=103 amount=-1  
kerning first=89  second=109 amount=-1  
kerning first=89  second=110 amount=-1  
kerning first=89  second=111 amount=-1  
kerning first=89  second=112 amount=-1  
kerning first=89  second=113 amount=-1  
kerning first=89  second=114 amount=-1  
kerning first=89  second=115 amount=-1  
kerning first=89  second=117 amount=-1  
kerning first=89  second=118 amount=-1  
kerning first=89  second=198 amount=-1  
kerning first=89  second=230 amount=-2  
kerning first=89  second=248 amount=-1  
kerning first=89  second=133 amount=-3  
kerning first=89  second=156 amount=-1  
kerning first=89  second=150 amount=-2  
kerning first=89  second=151 amount=-2  
kerning first=90  second=45  amount=-1  
kerning first=90  second=97  amount=-1  
kerning first=90  second=101 amount=-1  
kerning first=90  second=111 amount=-1  
kerning first=90  second=121 amount=-1  
kerning first=90  second=230 amount=-1  
kerning first=90  second=248 amount=-1  
kerning first=90  second=156 amount=-1  
kerning first=90  second=150 amount=-1  
kerning first=90  second=151 amount=-1  
kerning first=99  second=84  amount=-1  
kerning first=101 second=84  amount=-2  
kerning first=102 second=34  amount=1   
kerning first=102 second=39  amount=1   
kerning first=102 second=41  amount=1   
kerning first=102 second=42  amount=1   
kerning first=102 second=44  amount=-1  
kerning first=102 second=45  amount=-1  
kerning first=102 second=46  amount=-1  
kerning first=102 second=63  amount=1   
kerning first=102 second=92  amount=1   
kerning first=102 second=93  amount=1   
kerning first=102 second=125 amount=1   
kerning first=102 second=133 amount=-1  
kerning first=102 second=150 amount=-1  
kerning first=102 second=151 amount=-1  
kerning first=102 second=148 amount=1   
kerning first=102 second=146 amount=1   
kerning first=107 second=45  amount=-1  
kerning first=107 second=150 amount=-1  
kerning first=107 second=151 amount=-1  
kerning first=114 second=44  amount=-3  
kerning first=114 second=46  amount=-3  
kerning first=114 second=133 amount=-3  
kerning first=118 second=44  amount=-2  
kerning first=118 second=46  amount=-2  
kerning first=118 second=133 amount=-2  
kerning first=119 second=44  amount=-1  
kerning first=119 second=46  amount=-1  
kerning first=119 second=133 amount=-1  
kerning first=120 second=45  amount=-1  
kerning first=120 second=150 amount=-1  
kerning first=120 second=151 amount=-1  
kerning first=121 second=44  amount=-2  
kerning first=121 second=46  amount=-2  
kerning first=121 second=133 amount=-2  
kerning first=199 second=45  amount=-1  
kerning first=199 second=150 amount=-1  
kerning first=199 second=151 amount=-1  
kerning first=216 second=84  amount=-1  
kerning first=133 second=148 amount=-2  
kerning first=133 second=146 amount=-2  
kerning first=150 second=65  amount=-1  
kerning first=150 second=74  amount=-1  
kerning first=150 second=84  amount=-2  
kerning first=150 second=86  amount=-1  
kerning first=150 second=87  amount=-1  
kerning first=150 second=88  amount=-1  
kerning first=150 second=89  amount=-2  
kerning first=150 second=120 amount=-1  
kerning first=150 second=198 amount=-1  
kerning first=151 second=65  amount=-1  
kerning first=151 second=74  amount=-1  
kerning first=151 second=84  amount=-2  
kerning first=151 second=86  amount=-1  
kerning first=151 second=87  amount=-1  
kerning first=151 second=88  amount=-1  
kerning first=151 second=89  amount=-2  
kerning first=151 second=120 amount=-1  
kerning first=151 second=198 amount=-1  
kerning first=147 second=65  amount=-1  
kerning first=147 second=198 amount=-1  
kerning first=148 second=44  amount=-2  
kerning first=148 second=46  amount=-2  
kerning first=148 second=65  amount=-1  
kerning first=148 second=84  amount=1   
kerning first=148 second=86  amount=1   
kerning first=148 second=87  amount=1   
kerning first=148 second=89  amount=1   
kerning first=148 second=115 amount=-1  
kerning first=148 second=198 amount=-1  
kerning first=148 second=133 amount=-2  
kerning first=145 second=65  amount=-1  
kerning first=145 second=198 amount=-1  
kerning first=146 second=44  amount=-2  
kerning first=146 second=46  amount=-2  
kerning first=146 second=65  amount=-1  
kerning first=146 second=84  amount=1   
kerning first=146 second=86  amount=1   
kerning first=146 second=87  amount=1   
kerning first=146 second=89  amount=1   
kerning first=146 second=115 amount=-1  
kerning first=146 second=198 amount=-1  
kerning first=146 second=133 amount=-2  
kerning first=130 second=84  amount=-2  
kerning first=130 second=86  amount=-2  
kerning first=130 second=87  amount=-1  
kerning first=130 second=89  amount=-2  
kerning first=132 second=84  amount=-2  
kerning first=132 second=86  amount=-2  
kerning first=132 second=87  amount=-1  
kerning first=132 second=89  amount=-2  
